{
  "name": "SteerpathSmartSDK",
  "version": "1.0.1.0",
  "summary": "Steerpath Smart SDK - Indoor Positioning and Navigation SDK",
  "description": "With Steerpath, we set out to do the impossible: engineer a full-featured indoor navigation system into the easiest and most powerful package ever. That meant reimagining every element to make it not only to have a simple API and full offline capabilities but also better throughout. The result is more than just a new SDK. It’s the future of personal wayfinding.",
  "homepage": "https://www.steerpath.com",
  "license": {
    "type": "Copyright",
    "text": "Copyright 2018 Steerpath"
  },
  "authors": {
    "Steerpath": "support@steerpath.com"
  },
  "platforms": {
    "ios": "8.0"
  },
  "vendored_frameworks": "dynamic/SteerpathSmartSDK.framework",
  "module_name": "SteerpathSmartSDK",
  "source": {
    "http": "https://s3-eu-west-1.amazonaws.com/steerpath/ios/releases/smart-sdk/steerpath-ios-smart-sdk-1.0.1.0.zip",
    "flatten": true
  },
  "frameworks": [
    "CoreLocation",
    "CoreBluetooth",
    "CoreMotion"
  ],
  "dependencies": {
    "Steerpath-Map-SDK": [
      "1.1.5"
    ]
  },
  "libraries": [
    "z"
  ],
  "requires_arc": true
}
